%YAML 1.1
%TAG !u! tag:unity3d.com,2011:
--- !u!1 &2895064039303736265
GameObject:
  m_ObjectHideFlags: 0
  m_CorrespondingSourceObject: {fileID: 0}
  m_PrefabInstance: {fileID: 0}
  m_PrefabAsset: {fileID: 0}
  serializedVersion: 6
  m_Component:
  - component: {fileID: 5371056029534841516}
  m_Layer: 0
  m_Name: Background
  m_TagString: Untagged
  m_Icon: {fileID: 0}
  m_NavMeshLayer: 0
  m_StaticEditorFlags: 0
  m_IsActive: 1
--- !u!4 &5371056029534841516
Transform:
  m_ObjectHideFlags: 0
  m_CorrespondingSourceObject: {fileID: 0}
  m_PrefabInstance: {fileID: 0}
  m_PrefabAsset: {fileID: 0}
  m_GameObject: {fileID: 2895064039303736265}
  m_LocalRotation: {x: 0, y: 0, z: 0, w: 1}
  m_LocalPosition: {x: 0, y: 0, z: 0}
  m_LocalScale: {x: 1, y: 1, z: 1}
  m_Children:
  - {fileID: 9137717277565504818}
  - {fileID: 9137717277370721835}
  m_Father: {fileID: 0}
  m_RootOrder: 0
  m_LocalEulerAnglesHint: {x: 0, y: 0, z: 0}
--- !u!1001 &3367098895459755722
PrefabInstance:
  m_ObjectHideFlags: 0
  serializedVersion: 2
  m_Modification:
    m_TransformParent: {fileID: 5371056029534841516}
    m_Modifications:
    - target: {fileID: 5797795080274242553, guid: bb5be47082dde40a09b4108a8acba76a,
        type: 3}
      propertyPath: m_Name
      value: bg_base_fog
      objectReference: {fileID: 0}
    - target: {fileID: 5797795080274242552, guid: bb5be47082dde40a09b4108a8acba76a,
        type: 3}
      propertyPath: m_LocalPosition.x
      value: 0
      objectReference: {fileID: 0}
    - target: {fileID: 5797795080274242552, guid: bb5be47082dde40a09b4108a8acba76a,
        type: 3}
      propertyPath: m_LocalPosition.y
      value: 0
      objectReference: {fileID: 0}
    - target: {fileID: 5797795080274242552, guid: bb5be47082dde40a09b4108a8acba76a,
        type: 3}
      propertyPath: m_LocalPosition.z
      value: 0
      objectReference: {fileID: 0}
    - target: {fileID: 5797795080274242552, guid: bb5be47082dde40a09b4108a8acba76a,
        type: 3}
      propertyPath: m_LocalRotation.x
      value: -0
      objectReference: {fileID: 0}
    - target: {fileID: 5797795080274242552, guid: bb5be47082dde40a09b4108a8acba76a,
        type: 3}
      propertyPath: m_LocalRotation.y
      value: -0
      objectReference: {fileID: 0}
    - target: {fileID: 5797795080274242552, guid: bb5be47082dde40a09b4108a8acba76a,
        type: 3}
      propertyPath: m_LocalRotation.z
      value: -0
      objectReference: {fileID: 0}
    - target: {fileID: 5797795080274242552, guid: bb5be47082dde40a09b4108a8acba76a,
        type: 3}
      propertyPath: m_LocalRotation.w
      value: 1
      objectReference: {fileID: 0}
    - target: {fileID: 5797795080274242552, guid: bb5be47082dde40a09b4108a8acba76a,
        type: 3}
      propertyPath: m_RootOrder
      value: 0
      objectReference: {fileID: 0}
    - target: {fileID: 5797795080274242552, guid: bb5be47082dde40a09b4108a8acba76a,
        type: 3}
      propertyPath: m_LocalEulerAnglesHint.x
      value: 0
      objectReference: {fileID: 0}
    - target: {fileID: 5797795080274242552, guid: bb5be47082dde40a09b4108a8acba76a,
        type: 3}
      propertyPath: m_LocalEulerAnglesHint.y
      value: 0
      objectReference: {fileID: 0}
    - target: {fileID: 5797795080274242552, guid: bb5be47082dde40a09b4108a8acba76a,
        type: 3}
      propertyPath: m_LocalEulerAnglesHint.z
      value: 0
      objectReference: {fileID: 0}
    m_RemovedComponents:
    - {fileID: 5797795080988941045, guid: bb5be47082dde40a09b4108a8acba76a, type: 3}
    - {fileID: 5797795080596073122, guid: bb5be47082dde40a09b4108a8acba76a, type: 3}
    - {fileID: 5797795080358082590, guid: bb5be47082dde40a09b4108a8acba76a, type: 3}
    - {fileID: 5797795080329490908, guid: bb5be47082dde40a09b4108a8acba76a, type: 3}
    - {fileID: 5797795080302780732, guid: bb5be47082dde40a09b4108a8acba76a, type: 3}
    - {fileID: 5797795080235574237, guid: bb5be47082dde40a09b4108a8acba76a, type: 3}
    - {fileID: 5797795079775060439, guid: bb5be47082dde40a09b4108a8acba76a, type: 3}
    - {fileID: 5797795079690576049, guid: bb5be47082dde40a09b4108a8acba76a, type: 3}
    - {fileID: 5797795079645490123, guid: bb5be47082dde40a09b4108a8acba76a, type: 3}
    - {fileID: 5797795079429012891, guid: bb5be47082dde40a09b4108a8acba76a, type: 3}
    - {fileID: 5797795078966755131, guid: bb5be47082dde40a09b4108a8acba76a, type: 3}
    - {fileID: 5797795080816368833, guid: bb5be47082dde40a09b4108a8acba76a, type: 3}
    - {fileID: 5797795080179179726, guid: bb5be47082dde40a09b4108a8acba76a, type: 3}
    - {fileID: 5797795080524994973, guid: bb5be47082dde40a09b4108a8acba76a, type: 3}
    - {fileID: 5797795079578144730, guid: bb5be47082dde40a09b4108a8acba76a, type: 3}
    - {fileID: 5797795078977990766, guid: bb5be47082dde40a09b4108a8acba76a, type: 3}
    - {fileID: 5797795079408384024, guid: bb5be47082dde40a09b4108a8acba76a, type: 3}
  m_SourcePrefab: {fileID: 100100000, guid: bb5be47082dde40a09b4108a8acba76a, type: 3}
--- !u!4 &9137717277565504818 stripped
Transform:
  m_CorrespondingSourceObject: {fileID: 5797795080274242552, guid: bb5be47082dde40a09b4108a8acba76a,
    type: 3}
  m_PrefabInstance: {fileID: 3367098895459755722}
  m_PrefabAsset: {fileID: 0}
--- !u!1001 &3367098896875605459
PrefabInstance:
  m_ObjectHideFlags: 0
  serializedVersion: 2
  m_Modification:
    m_TransformParent: {fileID: 5371056029534841516}
    m_Modifications:
    - target: {fileID: 5797795080274242553, guid: bb5be47082dde40a09b4108a8acba76a,
        type: 3}
      propertyPath: m_Name
      value: bg_base_fog1
      objectReference: {fileID: 0}
    - target: {fileID: 5797795080274242552, guid: bb5be47082dde40a09b4108a8acba76a,
        type: 3}
      propertyPath: m_LocalPosition.x
      value: 0
      objectReference: {fileID: 0}
    - target: {fileID: 5797795080274242552, guid: bb5be47082dde40a09b4108a8acba76a,
        type: 3}
      propertyPath: m_LocalPosition.y
      value: 0
      objectReference: {fileID: 0}
    - target: {fileID: 5797795080274242552, guid: bb5be47082dde40a09b4108a8acba76a,
        type: 3}
      propertyPath: m_LocalPosition.z
      value: -40
      objectReference: {fileID: 0}
    - target: {fileID: 5797795080274242552, guid: bb5be47082dde40a09b4108a8acba76a,
        type: 3}
      propertyPath: m_LocalRotation.x
      value: -0
      objectReference: {fileID: 0}
    - target: {fileID: 5797795080274242552, guid: bb5be47082dde40a09b4108a8acba76a,
        type: 3}
      propertyPath: m_LocalRotation.y
      value: -0
      objectReference: {fileID: 0}
    - target: {fileID: 5797795080274242552, guid: bb5be47082dde40a09b4108a8acba76a,
        type: 3}
      propertyPath: m_LocalRotation.z
      value: -0
      objectReference: {fileID: 0}
    - target: {fileID: 5797795080274242552, guid: bb5be47082dde40a09b4108a8acba76a,
        type: 3}
      propertyPath: m_LocalRotation.w
      value: 1
      objectReference: {fileID: 0}
    - target: {fileID: 5797795080274242552, guid: bb5be47082dde40a09b4108a8acba76a,
        type: 3}
      propertyPath: m_RootOrder
      value: 1
      objectReference: {fileID: 0}
    - target: {fileID: 5797795080274242552, guid: bb5be47082dde40a09b4108a8acba76a,
        type: 3}
      propertyPath: m_LocalEulerAnglesHint.x
      value: 0
      objectReference: {fileID: 0}
    - target: {fileID: 5797795080274242552, guid: bb5be47082dde40a09b4108a8acba76a,
        type: 3}
      propertyPath: m_LocalEulerAnglesHint.y
      value: 0
      objectReference: {fileID: 0}
    - target: {fileID: 5797795080274242552, guid: bb5be47082dde40a09b4108a8acba76a,
        type: 3}
      propertyPath: m_LocalEulerAnglesHint.z
      value: 0
      objectReference: {fileID: 0}
    m_RemovedComponents:
    - {fileID: 5797795080988941045, guid: bb5be47082dde40a09b4108a8acba76a, type: 3}
    - {fileID: 5797795080596073122, guid: bb5be47082dde40a09b4108a8acba76a, type: 3}
    - {fileID: 5797795080358082590, guid: bb5be47082dde40a09b4108a8acba76a, type: 3}
    - {fileID: 5797795080329490908, guid: bb5be47082dde40a09b4108a8acba76a, type: 3}
    - {fileID: 5797795080302780732, guid: bb5be47082dde40a09b4108a8acba76a, type: 3}
    - {fileID: 5797795080235574237, guid: bb5be47082dde40a09b4108a8acba76a, type: 3}
    - {fileID: 5797795079775060439, guid: bb5be47082dde40a09b4108a8acba76a, type: 3}
    - {fileID: 5797795079690576049, guid: bb5be47082dde40a09b4108a8acba76a, type: 3}
    - {fileID: 5797795079645490123, guid: bb5be47082dde40a09b4108a8acba76a, type: 3}
    - {fileID: 5797795079429012891, guid: bb5be47082dde40a09b4108a8acba76a, type: 3}
    - {fileID: 5797795078966755131, guid: bb5be47082dde40a09b4108a8acba76a, type: 3}
    - {fileID: 5797795080816368833, guid: bb5be47082dde40a09b4108a8acba76a, type: 3}
    - {fileID: 5797795080179179726, guid: bb5be47082dde40a09b4108a8acba76a, type: 3}
    - {fileID: 5797795080524994973, guid: bb5be47082dde40a09b4108a8acba76a, type: 3}
    - {fileID: 5797795079578144730, guid: bb5be47082dde40a09b4108a8acba76a, type: 3}
    - {fileID: 5797795078977990766, guid: bb5be47082dde40a09b4108a8acba76a, type: 3}
    - {fileID: 5797795079408384024, guid: bb5be47082dde40a09b4108a8acba76a, type: 3}
  m_SourcePrefab: {fileID: 100100000, guid: bb5be47082dde40a09b4108a8acba76a, type: 3}
--- !u!4 &9137717277370721835 stripped
Transform:
  m_CorrespondingSourceObject: {fileID: 5797795080274242552, guid: bb5be47082dde40a09b4108a8acba76a,
    type: 3}
  m_PrefabInstance: {fileID: 3367098896875605459}
  m_PrefabAsset: {fileID: 0}
